Dairian_Workflow
…
Rows: 12869 Columns: 31
── Column specification ────────────────────────────────────────────────────────
Delimiter: ","
chr  (10): Id, PATIENTID, PROVIDERID, PRIMARYPATIENTINSURANCEID, SECONDARYPA...
dbl  (14): DEPARTMENTID, PATIENTDEPARTMENTID, DIAGNOSIS1, DIAGNOSIS2, DIAGNO...
lgl   (2): DIAGNOSIS8, REFERRINGPROVIDERID
dttm  (5): CURRENTILLNESSDATE, SERVICEDATE, LASTBILLEDDATE1, LASTBILLEDDATE2...

ℹ Use `spec()` to retrieve the full column specification for this data.
ℹ Specify the column types or set `show_col_types = FALSE` to quiet this message.

claims

# A tibble: 12,869 × 31
   Id         PATIENTID PROVIDERID PRIMARYPATIENTINSURA…¹ SECONDARYPATIENTINSU…²
   <chr>      <chr>     <chr>      <chr>                  <chr>                 
 1 5681b94f-… e93300bf… c11de3df-… <NA>                   <NA>                  
 2 3b302f59-… 6b0b0021… 8dcc08a6-… 26aab0cd-6aba-3e1b-ac… <NA>                  
 3 2b5c04df-… 9eedeb5a… d46202b3-… df166300-5a78-3502-a4… <NA>                  
 4 ead6535b-… 9eedeb5a… d46202b3-… df166300-5a78-3502-a4… <NA>                  
 5 004f6e0f-… 6b0b0021… 16b30374-… 26aab0cd-6aba-3e1b-ac… <NA>                  
 6 e525728f-… 6b0b0021… 16b30374-… 26aab0cd-6aba-3e1b-ac… <NA>                  
 7 3bcd1ad6-… e93300bf… c11de3df-… <NA>                   <NA>                  
 8 427f7352-… e93300bf… c11de3df-… <NA>                   <NA>                  
 9 c18736e8-… e93300bf… c11de3df-… <NA>                   <NA>                  
10 f91fb51b-… e93300bf… ae3114cd-… <NA>                   <NA>                  
# ℹ 12,859 more rows
# ℹ abbreviated names: ¹​PRIMARYPATIENTINSURANCEID, ²​SECONDARYPATIENTINSURANCEID
# ℹ 26 more variables: DEPARTMENTID <dbl>, PATIENTDEPARTMENTID <dbl>,
#   DIAGNOSIS1 <dbl>, DIAGNOSIS2 <dbl>, DIAGNOSIS3 <dbl>, DIAGNOSIS4 <dbl>,
#   DIAGNOSIS5 <dbl>, DIAGNOSIS6 <dbl>, DIAGNOSIS7 <dbl>, DIAGNOSIS8 <lgl>,
#   REFERRINGPROVIDERID <lgl>, APPOINTMENTID <chr>, CURRENTILLNESSDATE <dttm>,
#   SERVICEDATE <dttm>, SUPERVISINGPROVIDERID <chr>, STATUS1 <chr>, …
…
